Plot interval estimates from MCMC draws — MCMC-intervals • bayesplot
…
#> # … with 1 more variable: hh <dbl>
mcmc_intervals_data(x, rhat = fake_rhat_values)
#> # A tibble: 6 x 12
#>   parameter outer_width inner_width point_est      ll       l       m       h
#>   <fct>           <dbl>       <dbl> <chr>       <dbl>   <dbl>   <dbl>   <dbl>
#> 1 alpha             0.9         0.5 median    -42.7   -28.7   -18.5    -7.46 
#> 2 sigma             0.9         0.5 median     17.1    17.6    18.0    18.4  
#> 3 beta[1]           0.9         0.5 median     -0.165   0.136   0.358   0.601
#> 4 beta[2]           0.9         0.5 median     -0.722  -0.578  -0.469  -0.362
#> 5 beta[3]           0.9         0.5 median      0.718   0.858   0.950   1.05 
#> 6 beta[4]           0.9         0.5 median     24.9    39.1    49.2    59.4  
#> # … with 4 more variables: hh <dbl>, rhat_value <S3: rhat>, rhat_rating <fct>,
#> #   rhat_description <chr>
mcmc_areas_data(x, pars = "alpha")
#> # A tibble: 2,091 x 5
#>    parameter interval interval_width     x density
#>    <fct>     <chr>             <dbl> <dbl>   <dbl>
#>  1 alpha     inner               0.5 -28.7  0.0221
#>  2 alpha     inner               0.5 -28.7  0.0221
#>  3 alpha     inner               0.5 -28.7  0.0221
#>  4 alpha     inner               0.5 -28.7  0.0221
#>  5 alpha     inner               0.5 -28.6  0.0221
#>  6 alpha     inner               0.5 -28.6  0.0221
#>  7 alpha     inner               0.5 -28.6  0.0221
#>  8 alpha     inner               0.5 -28.6  0.0222
#>  9 alpha     inner               0.5 -28.5  0.0222
#> 10 alpha     inner               0.5 -28.5  0.0222
#> # … with 2,081 more rows
…
