Tidy parameter selection — tidy-params • bayesplot
…
## More examples of param_glue() ##
###################################
library(dplyr)
posterior <- tibble(
  b_Intercept = rnorm(1000),
  sd_condition__Intercept = rexp(1000),
  sigma = rexp(1000),
  `r_condition[A,Intercept]` = rnorm(1000),
  `r_condition[B,Intercept]` = rnorm(1000),
  `r_condition[C,Intercept]` = rnorm(1000),
  `r_condition[A,Slope]` = rnorm(1000),
  `r_condition[B,Slope]` = rnorm(1000)
)
posterior
#> # A tibble: 1,000 x 8
#>    b_Intercept sd_condition__I…  sigma `r_condition[A,… `r_condition[B,…
#>          <dbl>            <dbl>  <dbl>            <dbl>            <dbl>
#>  1     -1.44             1.51   0.310            -0.839          -0.907 
#>  2     -1.95             0.230  1.12              1.34           -0.558 
#>  3     -0.570            0.198  0.986             0.123          -1.09  
#>  4      1.02             0.562  0.163            -0.682          -1.09  
#>  5     -0.851            0.113  0.199            -0.769           1.25  
#>  6     -0.983            0.0493 0.0739           -0.621          -0.0387
#>  7      0.460            0.944  1.65             -0.443          -0.291 
#>  8     -0.0503           0.0813 3.79             -0.256          -0.908 
#>  9      0.617            1.57   0.271            -0.924           0.385 
#> 10     -1.04             0.183  0.797            -2.08           -1.60  
#> # … with 990 more rows, and 3 more variables: `r_condition[C,Intercept]` <dbl>,
#> #   `r_condition[A,Slope]` <dbl>, `r_condition[B,Slope]` <dbl>
…
