…
#> # ℹ 1 more variable: hh <dbl>
mcmc_intervals_data(x, rhat = fake_rhat_values)
#> # A tibble: 6 × 12
#>   parameter outer_width inner_width point_est      ll       l       m      h
#>   <fct>           <dbl>       <dbl> <chr>       <dbl>   <dbl>   <dbl>  <dbl>
#> 1 alpha             0.9         0.5 median    -42.7   -28.7   -18.5   -7.46 
#> 2 sigma             0.9         0.5 median     17.1    17.6    18.0   18.4  
#> 3 beta[1]           0.9         0.5 median     -0.165   0.136   0.358  0.601
#> 4 beta[2]           0.9         0.5 median     -0.722  -0.578  -0.469 -0.362
#> 5 beta[3]           0.9         0.5 median      0.718   0.858   0.950  1.05 
#> 6 beta[4]           0.9         0.5 median     24.9    39.1    49.2   59.4  
#> # ℹ 4 more variables: hh <dbl>, rhat_value <dbl>, rhat_rating <fct>,
#> #   rhat_description <chr>
mcmc_areas_data(x, pars = "alpha")
#> # A tibble: 2,091 × 7
#>    parameter interval interval_width     x density scaled_density
#>    <fct>     <chr>             <dbl> <dbl>   <dbl>          <dbl>
#>  1 alpha     inner               0.5 -28.7  0.0220          0.865
#>  2 alpha     inner               0.5 -28.7  0.0221          0.865
#>  3 alpha     inner               0.5 -28.7  0.0221          0.866
#>  4 alpha     inner               0.5 -28.7  0.0221          0.866
#>  5 alpha     inner               0.5 -28.6  0.0221          0.867
#>  6 alpha     inner               0.5 -28.6  0.0221          0.867
#>  7 alpha     inner               0.5 -28.6  0.0221          0.868
#>  8 alpha     inner               0.5 -28.6  0.0221          0.868
#>  9 alpha     inner               0.5 -28.5  0.0222          0.869
#> 10 alpha     inner               0.5 -28.5  0.0222          0.870
#> # ℹ 2,081 more rows
#> # ℹ 1 more variable: plotting_density <dbl>
…
