Tidy parameter selection — tidy-params • bayesplot
…
## More examples of param_glue() ##
###################################
library(dplyr)
posterior <- tibble(
  b_Intercept = rnorm(1000),
  sd_condition__Intercept = rexp(1000),
  sigma = rexp(1000),
  `r_condition[A,Intercept]` = rnorm(1000),
  `r_condition[B,Intercept]` = rnorm(1000),
  `r_condition[C,Intercept]` = rnorm(1000),
  `r_condition[A,Slope]` = rnorm(1000),
  `r_condition[B,Slope]` = rnorm(1000)
)
posterior
#> # A tibble: 1,000 × 8
#>    b_Intercept sd_condition__Intercept sigma `r_condition[A,Intercept]`
#>          <dbl>                   <dbl> <dbl>                      <dbl>
#>  1     -0.396                   0.0636 0.251                   -0.443  
#>  2      0.0641                  0.504  0.630                   -0.00404
#>  3     -0.497                   3.11   1.45                     0.570  
#>  4      0.0985                  0.524  0.768                    0.490  
#>  5     -0.884                   0.777  0.347                   -1.44   
#>  6      1.19                    0.334  0.332                    0.685  
#>  7     -0.605                   1.82   0.471                   -0.822  
#>  8      0.807                   0.653  1.19                    -0.893  
#>  9     -0.810                   1.03   0.460                    0.536  
#> 10     -0.117                   0.688  1.28                     2.28   
#> # ℹ 990 more rows
#> # ℹ 4 more variables: `r_condition[B,Intercept]` <dbl>,
#> #   `r_condition[C,Intercept]` <dbl>, `r_condition[A,Slope]` <dbl>,
#> #   `r_condition[B,Slope]` <dbl>
…
